<svg xmlns="http://www.w3.org/2000/svg" width="38" height="38" viewBox="0 0 38 38">
    <g fill="none" fill-rule="evenodd">
        <circle cx="19" cy="19" r="18.269" fill="#EFEFEF" fill-rule="nonzero"/>
        <path stroke="#002A76" stroke-linecap="round" stroke-width="3" d="M18.5 2c-8.837 0-16 7.163-16 16"/>
        <circle cx="19" cy="19" r="15.346" fill="#FFF" fill-rule="nonzero"/>
        <path fill="#474947" fill-rule="nonzero" d="M19 35.077c-8.879 0-16.077-7.198-16.077-16.077 0-8.879 7.198-16.077 16.077-16.077 8.879 0 16.077 7.198 16.077 16.077A16.077 16.077 0 0 1 19 35.077zm0-30.692C10.928 4.385 4.385 10.928 4.385 19S10.928 33.615 19 33.615 33.615 27.072 33.615 19A14.615 14.615 0 0 0 19 4.385z"/>
        <path fill="#474947" fill-rule="nonzero" d="M19 7.308a.767.767 0 0 1-.519-.212.84.84 0 0 1-.153-.241.687.687 0 0 1 0-.556.84.84 0 0 1 .153-.24.73.73 0 0 1 .92-.089l.118.088a.84.84 0 0 1 .153.241.687.687 0 0 1 0 .556.84.84 0 0 1-.153.24l-.117.088a.41.41 0 0 1-.124.066.453.453 0 0 1-.14.044L19 7.308zM19 32.154a.767.767 0 0 1-.519-.212.84.84 0 0 1-.153-.241.687.687 0 0 1 0-.556.84.84 0 0 1 .153-.24.73.73 0 0 1 .92-.088l.118.087a.84.84 0 0 1 .153.241.687.687 0 0 1 0 .556.84.84 0 0 1-.153.24l-.117.089a.41.41 0 0 1-.124.065.453.453 0 0 1-.14.044l-.138.015zM31.423 19.73a.767.767 0 0 1-.519-.211.73.73 0 0 1-.153-.241.73.73 0 0 1 .153-.797l.11-.088a.555.555 0 0 1 .131-.065.46.46 0 0 1 .132-.059.621.621 0 0 1 .285 0 .446.446 0 0 1 .139.044c.046.016.09.038.131.066l.11.088a.73.73 0 0 1 .212.533.73.73 0 0 1-.059.278.73.73 0 0 1-.153.24.767.767 0 0 1-.519.213zM6.577 19.73a.73.73 0 1 1 .519-.211.767.767 0 0 1-.52.212z"/>
        <circle cx="19" cy="19" r="1.462" fill="#EFEFEF" fill-rule="nonzero"/>
        <path fill="#474947" fill-rule="nonzero" d="M19 21.192a2.192 2.192 0 1 1 0-4.384 2.192 2.192 0 0 1 0 4.384zm0-2.923a.73.73 0 1 0 0 1.462.73.73 0 0 0 0-1.462z"/>
        <path fill="#474947" fill-rule="nonzero" d="M19 18.27a.73.73 0 0 1-.73-.732v-7.307a.73.73 0 1 1 1.46 0v7.307a.73.73 0 0 1-.73.731zM17.538 19.73h-6.576a.73.73 0 1 1 0-1.46h6.576a.73.73 0 1 1 0 1.46z"/>
    </g>
</svg>
