<?xml version="1.0" encoding="utf-8"?>
<!-- Generator: Adobe Illustrator 21.1.0, SVG Export Plug-In . SVG Version: 6.00 Build 0)  -->
<svg version="1.1" id="Camada_1" xmlns="http://www.w3.org/2000/svg" xmlns:xlink="http://www.w3.org/1999/xlink" x="0px" y="0px"
	 viewBox="0 0 35 34" style="enable-background:new 0 0 35 34;" xml:space="preserve">
<style type="text/css">
	.st0{fill:#002A76;}
	.st1{fill:#FFFFFF;}
	.st2{fill:#05245D;}
</style>
<title>019_101_fast_quick_time_timer_stopwatch_speed_deadline_productivity</title>
<desc>Created with Sketch.</desc>
<g id="operador">
	<g id="omni_consultar_26" transform="translate(-133.000000, -261.000000)">
		
			<g id="_x30_19_x5F_101_x5F_fast_x5F_quick_x5F_time_x5F_timer_x5F_stopwatch_x5F_speed_x5F_deadline_x5F_productivity" transform="translate(133.000000, 261.750000)">
			<path id="Shape" class="st0" d="M14.5,30.6c5.8,2.5,12.8,1.1,16.9-3.4s4-10.9,0-15.5s-11-5.9-16.9-3.4"/>
			<path id="Shape_1_" class="st1" d="M20.5,32.3c-2.2,0-4.3-0.4-6.3-1.3c-0.2-0.1-0.3-0.3-0.4-0.4s0.1-0.4,0.3-0.5
				c0.2-0.1,0.4-0.1,0.6,0c1.8,0.8,3.8,1.2,5.8,1.2c7.3,0,13.3-5.3,13.3-11.9S27.8,7.5,20.5,7.5c-2,0-4,0.4-5.8,1.2
				c-0.2,0.1-0.4,0.1-0.6,0c-0.2-0.1-0.3-0.3-0.3-0.5c0-0.2,0.2-0.4,0.4-0.4c2-0.8,4.1-1.3,6.3-1.3c8,0,14.5,5.8,14.5,12.9
				S28.5,32.3,20.5,32.3L20.5,32.3z"/>
			<path id="Shape_2_" class="st2" d="M14.5,28.1c4.8,2.7,11.1,1.8,14.8-2s3.7-9.5,0-13.3s-10-4.7-14.8-2"/>
			<path id="Shape_3_" class="st1" d="M20.5,30.2c-2.2,0-4.4-0.6-6.4-1.6c-0.2-0.1-0.3-0.3-0.3-0.5c0-0.2,0.1-0.4,0.3-0.5
				c0.2-0.1,0.4-0.1,0.6,0c4.6,2.5,10.5,1.7,14-1.9s3.5-9,0-12.6s-9.4-4.5-14-1.9c-0.3,0.2-0.7,0.1-0.8-0.2
				c-0.2-0.3-0.1-0.6,0.2-0.8c4.4-2.4,9.9-2.1,13.9,0.8s5.5,7.7,3.8,12S25.6,30.2,20.5,30.2L20.5,30.2z"/>
			<path id="Shape_4_" class="st1" d="M20.5,7.5c-2.3,0-4.2-1.7-4.2-3.8S18.2,0,20.5,0s4.2,1.7,4.2,3.8c0,1-0.4,2-1.2,2.7
				S21.6,7.5,20.5,7.5z M20.5,1.1c-1.7,0-3,1.2-3,2.7s1.4,2.7,3,2.7c1.7,0,3-1.2,3-2.7c0-0.7-0.3-1.4-0.9-1.9
				C22.1,1.4,21.3,1.1,20.5,1.1L20.5,1.1z"/>
			<path id="Shape_5_" class="st1" d="M20.5,21c-1,0-1.8-0.7-1.8-1.6c0-0.9,0.8-1.6,1.8-1.6c1,0,1.8,0.7,1.8,1.6
				C22.3,20.3,21.5,21,20.5,21z M20.5,18.9c-0.3,0-0.6,0.2-0.6,0.5c0,0.3,0.3,0.5,0.6,0.5c0.3,0,0.6-0.2,0.6-0.5
				C21.1,19.1,20.9,18.9,20.5,18.9z"/>
			<path id="Shape_6_" class="st1" d="M18.4,21.9c-0.2,0-0.5-0.1-0.6-0.3c-0.1-0.2,0-0.4,0.1-0.6l6.8-6.1c0.2-0.2,0.6-0.2,0.8,0
				c0.2,0.2,0.2,0.5,0,0.7l-6.8,6.1C18.7,21.8,18.5,21.9,18.4,21.9z"/>
			<path id="Shape_7_" class="st1" d="M20.5,11.9c-0.3,0-0.6-0.2-0.6-0.5c0-0.3,0.3-0.5,0.6-0.5c0.3,0,0.6,0.2,0.6,0.5
				c0,0.1-0.1,0.3-0.2,0.4C20.8,11.8,20.7,11.9,20.5,11.9z"/>
			<path id="Shape_8_" class="st1" d="M20.5,28c-0.2,0-0.4-0.1-0.5-0.2c-0.1-0.1-0.1-0.3-0.1-0.5c0-0.1,0.1-0.1,0.1-0.2
				c0.1,0,0.1-0.1,0.2-0.1c0.2-0.1,0.5,0,0.7,0.1c0.1,0.1,0.1,0.1,0.1,0.2c0.1,0.2,0.1,0.4-0.1,0.5C20.9,27.9,20.7,28,20.5,28
				L20.5,28z"/>
			<path id="Shape_9_" class="st1" d="M29.6,19.9c-0.3,0-0.6-0.2-0.6-0.5c0-0.1,0.1-0.3,0.2-0.4c0.1-0.1,0.3-0.2,0.4-0.2
				s0.3,0.1,0.4,0.2c0.1,0.1,0.2,0.2,0.2,0.4C30.2,19.7,29.9,19.9,29.6,19.9L29.6,19.9z"/>
			<path id="Shape_10_" class="st1" d="M16,12.9c-0.3,0-0.6-0.2-0.6-0.5c0-0.1,0-0.1,0-0.2c0-0.1,0.1-0.1,0.1-0.2c0,0,0.1,0,0.1-0.1
				c0,0,0.1,0,0.1,0c0,0,0.1,0,0.1,0c0.2,0,0.4,0,0.5,0.1c0.1,0.1,0.1,0.1,0.1,0.2c0.1,0.1,0.1,0.3,0,0.4c0,0.1-0.1,0.1-0.1,0.2
				C16.3,12.9,16.2,12.9,16,12.9L16,12.9z"/>
			<path id="Shape_11_" class="st1" d="M25,27c-0.2,0-0.4-0.1-0.5-0.2c-0.1-0.1-0.1-0.3-0.1-0.5c0-0.1,0.1-0.1,0.1-0.2
				c0.1-0.1,0.3-0.2,0.4-0.2s0.3,0.1,0.4,0.2c0.1,0.1,0.1,0.1,0.1,0.2c0.1,0.2,0.1,0.4-0.1,0.5C25.4,26.9,25.2,26.9,25,27z"/>
			<path id="Shape_12_" class="st1" d="M28.4,15.9c-0.1,0-0.2,0-0.2,0c-0.2,0-0.3-0.2-0.3-0.3c0-0.1-0.1-0.1,0-0.2
				c0-0.2,0.1-0.4,0.4-0.5c0.2-0.1,0.5,0,0.7,0.1c0.1,0.1,0.1,0.1,0.1,0.2c0.1,0.1,0.1,0.3,0,0.4c0,0.1-0.1,0.1-0.1,0.2
				C28.7,15.8,28.5,15.9,28.4,15.9z"/>
			<path id="Shape_13_" class="st1" d="M28.4,24c-0.3,0-0.6-0.2-0.6-0.5c0-0.1,0.1-0.3,0.2-0.4c0.1,0,0.1-0.1,0.2-0.1
				c0.2-0.1,0.5,0,0.7,0.1c0.1,0.1,0.2,0.2,0.2,0.4C29,23.7,28.7,24,28.4,24L28.4,24z"/>
			<path id="Shape_14_" class="st1" d="M25,12.9c-0.2,0-0.3-0.1-0.4-0.2c-0.1-0.1-0.1-0.1-0.1-0.2c-0.1-0.1-0.1-0.3,0-0.4
				c0-0.1,0.1-0.1,0.1-0.2c0.1-0.1,0.3-0.2,0.5-0.1c0.2,0,0.4,0.2,0.4,0.3c0.1,0.1,0.1,0.3,0,0.4c0,0.1-0.1,0.1-0.1,0.2
				C25.4,12.9,25.2,12.9,25,12.9L25,12.9z"/>
			<path id="Shape_15_" class="st1" d="M16,27c-0.2,0-0.4-0.1-0.5-0.2c-0.1-0.1-0.1-0.3-0.1-0.5c0-0.1,0.1-0.1,0.1-0.2
				c0.1-0.1,0.3-0.2,0.4-0.2c0.2,0,0.3,0.1,0.4,0.2c0.1,0.1,0.1,0.1,0.1,0.2c0.1,0.2,0.1,0.4-0.1,0.5C16.4,26.9,16.2,26.9,16,27z"/>
			<path id="Shape_16_" class="st1" d="M21.1,7.5c-0.3,0-0.6-0.2-0.6-0.5c0,0.3-0.3,0.5-0.6,0.5S19.3,7.3,19.3,7V4.3
				c0-0.3,0.3-0.5,0.6-0.5h1.2c0.3,0,0.6,0.2,0.6,0.5V7C21.7,7.3,21.5,7.5,21.1,7.5z"/>
			<path id="Shape_17_" class="st1" d="M33.8,10.8c-0.2,0-0.3-0.1-0.4-0.2L31,8.5c-0.2-0.2-0.2-0.5,0-0.8l0.6-0.5
				c0.2-0.2,0.6-0.2,0.9,0l2.4,2.2c0.2,0.2,0.2,0.5,0,0.8l-0.6,0.5C34.1,10.7,34,10.8,33.8,10.8z"/>
			<path id="Shape_18_" class="st1" d="M30.6,11.5c-0.2,0-0.5-0.1-0.6-0.3s0-0.4,0.1-0.6l2-1.8c0.2-0.2,0.6-0.2,0.8,0s0.2,0.5,0,0.7
				l-2,1.8C30.9,11.4,30.8,11.5,30.6,11.5z"/>
			<path id="Shape_19_" class="st1" d="M12.1,11.3h-0.6c-0.3,0-0.6-0.2-0.6-0.5c0-0.3,0.3-0.5,0.6-0.5h0.6c0.3,0,0.6,0.2,0.6,0.5
				C12.7,11.1,12.4,11.3,12.1,11.3z"/>
			<path id="Shape_20_" class="st1" d="M12.1,15.6H8.4c-0.3,0-0.6-0.2-0.6-0.5s0.3-0.5,0.6-0.5h3.6c0.3,0,0.6,0.2,0.6,0.5
				S12.4,15.6,12.1,15.6z"/>
			<path id="Shape_21_" class="st1" d="M12.1,13.5h-1.8c-0.3,0-0.6-0.2-0.6-0.5s0.3-0.5,0.6-0.5h1.8c0.3,0,0.6,0.2,0.6,0.5
				S12.4,13.5,12.1,13.5z"/>
			<path id="Shape_22_" class="st1" d="M12.1,28.6H6c-0.3,0-0.6-0.2-0.6-0.5s0.3-0.5,0.6-0.5h6c0.3,0,0.6,0.2,0.6,0.5
				S12.4,28.6,12.1,28.6z"/>
			<path id="Shape_23_" class="st1" d="M12.1,17.8H6.6c-0.3,0-0.6-0.2-0.6-0.5c0-0.3,0.3-0.5,0.6-0.5h5.4c0.3,0,0.6,0.2,0.6,0.5
				C12.7,17.5,12.4,17.8,12.1,17.8z"/>
			<path id="Shape_24_" class="st1" d="M12.1,24.3H0.6C0.3,24.3,0,24,0,23.7s0.3-0.5,0.6-0.5h11.5c0.3,0,0.6,0.2,0.6,0.5
				S12.4,24.3,12.1,24.3z"/>
			<path id="Shape_25_" class="st1" d="M12.1,26.4H3.6c-0.3,0-0.6-0.2-0.6-0.5s0.3-0.5,0.6-0.5h8.4c0.3,0,0.6,0.2,0.6,0.5
				S12.4,26.4,12.1,26.4z"/>
			<path id="Shape_26_" class="st1" d="M12.1,22.1H2.4c-0.3,0-0.6-0.2-0.6-0.5S2.1,21,2.4,21h9.7c0.3,0,0.6,0.2,0.6,0.5
				S12.4,22.1,12.1,22.1z"/>
			<path id="Shape_27_" class="st1" d="M12.1,19.9H4.2c-0.3,0-0.6-0.2-0.6-0.5c0-0.3,0.3-0.5,0.6-0.5h7.8c0.3,0,0.6,0.2,0.6,0.5
				C12.7,19.7,12.4,19.9,12.1,19.9z"/>
		</g>
	</g>
</g>
</svg>
