<svg xmlns="http://www.w3.org/2000/svg" width="81" height="56" viewBox="0 0 81 56">
    <g fill="none" fill-rule="nonzero">
        <rect width="77.885" height="52.889" x="1.558" y="1.556" fill="#C5D9EF" rx="2"/>
        <path fill="#FFF" d="M78.523 53.527L51.871 28H29.13L2.477 53.527"/>
        <path fill="#002A76" d="M2.477 55.082a1.554 1.554 0 1 1-1.075-2.676L28.038 26.88a1.56 1.56 0 0 1 2.116.124c.565.587.58 1.51.034 2.116L3.552 54.662a1.559 1.559 0 0 1-1.075.42zM78.523 55.082a1.559 1.559 0 0 1-1.075-.435L50.781 29.12a1.56 1.56 0 0 1-.031-2.209 1.566 1.566 0 0 1 2.212-.031l26.652 25.527a1.554 1.554 0 0 1-1.075 2.675h-.016z"/>
        <path fill="#FFF" d="M78.523 2.473L46.98 32.667a9.355 9.355 0 0 1-12.944 0L2.476 2.473"/>
        <path fill="#002A76" d="M40.5 36.851a10.912 10.912 0 0 1-7.555-3.111L1.386 3.593a1.554 1.554 0 0 1 .034-2.116 1.56 1.56 0 0 1 2.116-.124l31.574 30.21a7.796 7.796 0 0 0 10.795 0l31.543-30.21a1.559 1.559 0 0 1 2.68.707c.125.57-.08 1.162-.53 1.533l-31.543 30.21A10.912 10.912 0 0 1 40.5 36.85z"/>
        <path fill="#002A76" d="M76.327 56H4.673A4.67 4.67 0 0 1 0 51.333V4.667A4.67 4.67 0 0 1 4.673 0h71.654A4.67 4.67 0 0 1 81 4.667v46.666A4.67 4.67 0 0 1 76.327 56zM4.673 3.111c-.86 0-1.558.697-1.558 1.556v46.666c0 .86.698 1.556 1.558 1.556h71.654c.86 0 1.558-.697 1.558-1.556V4.667c0-.86-.698-1.556-1.558-1.556H4.673z"/>
    </g>
</svg>
