<svg xmlns="http://www.w3.org/2000/svg" width="83" height="80" viewBox="0 0 83 80">
    <g fill="none" fill-rule="nonzero">
        <rect width="40" height="77.143" x="21.429" y="1.429" fill="#FFF" rx="2"/>
        <path fill="#002A76" d="M58.571 80H24.286A4.286 4.286 0 0 1 20 75.714V4.286A4.286 4.286 0 0 1 24.286 0H58.57a4.286 4.286 0 0 1 4.286 4.286v71.428A4.286 4.286 0 0 1 58.571 80zM24.286 2.857c-.79 0-1.429.64-1.429 1.429v71.428c0 .79.64 1.429 1.429 1.429H58.57c.79 0 1.429-.64 1.429-1.429V4.286c0-.79-.64-1.429-1.429-1.429H24.286z"/>
        <path fill="#FFF" d="M15.714 7.471L3.943 10.614A2.857 2.857 0 0 0 1.87 14.2l13.843 51.643"/>
        <path fill="#002A76" d="M15.714 67.271a1.429 1.429 0 0 1-1.428-1.057L.5 14.571a4.286 4.286 0 0 1 3.071-5.328l11.772-3.157a1.429 1.429 0 0 1 .743 2.757L4.286 12a1.5 1.5 0 0 0-1.057 1.829L17.143 65.47a1.429 1.429 0 0 1-1.429 1.8z"/>
        <path fill="#FFF" d="M67.143 65.843L80.986 14.2a2.857 2.857 0 0 0-2.072-3.586L67.143 7.471"/>
        <path fill="#002A76" d="M67.143 67.271a1.429 1.429 0 0 1-1.429-1.8L79.557 13.83A1.5 1.5 0 0 0 78.571 12l-11.8-3.157a1.429 1.429 0 0 1 .743-2.757l11.772 3.157a4.286 4.286 0 0 1 3.085 5.328l-13.8 51.643a1.429 1.429 0 0 1-1.428 1.057zM44.286 8.571H38.57a1.429 1.429 0 1 1 0-2.857h5.715a1.429 1.429 0 0 1 0 2.857z"/>
        <circle cx="41.429" cy="70" r="2.857" fill="#C5D9EF"/>
        <path fill="#002A76" d="M41.429 74.286a4.286 4.286 0 1 1 0-8.572 4.286 4.286 0 0 1 0 8.572zm0-5.715a1.429 1.429 0 1 0 0 2.858 1.429 1.429 0 0 0 0-2.858z"/>
        <path fill="#C5D9EF" d="M21.429 12.857h40v48.571h-40z"/>
        <path fill="#002A76" d="M61.429 62.857h-40c-.79 0-1.429-.64-1.429-1.428V12.857c0-.789.64-1.428 1.429-1.428h40c.789 0 1.428.64 1.428 1.428V61.43c0 .789-.64 1.428-1.428 1.428zM22.857 60H60V14.286H22.857V60z"/>
    </g>
</svg>
