<?xml version="1.0" encoding="utf-8"?>
<!-- Generator: Adobe Illustrator 21.1.0, SVG Export Plug-In . SVG Version: 6.00 Build 0)  -->
<svg version="1.1" id="Camada_1" xmlns="http://www.w3.org/2000/svg" xmlns:xlink="http://www.w3.org/1999/xlink" x="0px" y="0px"
	 viewBox="0 0 57 78" style="enable-background:new 0 0 57 78;" xml:space="preserve">
<style type="text/css">
	.st0{fill:#C5D9EF;}
	.st1{fill:#002A76;}
	.st2{fill:#FFFFFF;}
</style>
<title>008_029_skyscraper_company_office_commercial_building</title>
<desc>Created with Sketch.</desc>
<g id="operador">
	<g id="omni_consultar_20_empresa" transform="translate(-212.000000, -145.000000)">
		
			<g id="_x30_08_x5F_029_x5F_skyscraper_x5F_company_x5F_office_x5F_commercial_x5F_building" transform="translate(212.000000, 145.000000)">
			<rect id="Rectangle-path" x="11.7" y="6.5" class="st0" width="33.7" height="5.2"/>
			<path id="Shape" class="st1" d="M45.3,13H11.7c-0.7,0-1.3-0.6-1.3-1.3V6.5c0-0.7,0.6-1.3,1.3-1.3h33.7c0.7,0,1.3,0.6,1.3,1.3v5.2
				C46.6,12.4,46.1,13,45.3,13z M13,10.4H44V7.8H13V10.4z"/>
			<rect id="Rectangle-path_1_" x="3.9" y="11.7" class="st2" width="49.2" height="65"/>
			<path id="Shape_1_" class="st1" d="M53.1,78H3.9c-0.7,0-1.3-0.6-1.3-1.3v-65c0-0.7,0.6-1.3,1.3-1.3h49.2c0.7,0,1.3,0.6,1.3,1.3
				v65C54.4,77.4,53.8,78,53.1,78z M5.2,75.4h46.6V13H5.2V75.4z"/>
			<rect id="Rectangle-path_2_" x="9.1" y="16.9" class="st0" width="38.9" height="39"/>
			<path id="Shape_2_" class="st1" d="M47.9,57.2H9.1c-0.7,0-1.3-0.6-1.3-1.3v-39c0-0.7,0.6-1.3,1.3-1.3h38.9c0.7,0,1.3,0.6,1.3,1.3
				v39C49.2,56.6,48.6,57.2,47.9,57.2z M10.4,54.6h36.3V18.2H10.4V54.6z"/>
			<rect id="Rectangle-path_3_" x="9.1" y="55.9" class="st2" width="38.9" height="20.8"/>
			<path id="Shape_3_" class="st1" d="M47.9,78H9.1c-0.7,0-1.3-0.6-1.3-1.3V55.9c0-0.7,0.6-1.3,1.3-1.3h38.9c0.7,0,1.3,0.6,1.3,1.3
				v20.8C49.2,77.4,48.6,78,47.9,78z M10.4,75.4h36.3V57.2H10.4V75.4z"/>
			<path id="Shape_4_" class="st1" d="M28.5,7.8c-0.7,0-1.3-0.6-1.3-1.3V1.3c0-0.7,0.6-1.3,1.3-1.3s1.3,0.6,1.3,1.3v5.2
				C29.8,7.2,29.2,7.8,28.5,7.8z"/>
			<path id="Shape_5_" class="st1" d="M19.4,78c-0.7,0-1.3-0.6-1.3-1.3V55.9c0-0.7,0.6-1.3,1.3-1.3s1.3,0.6,1.3,1.3v20.8
				C20.7,77.4,20.1,78,19.4,78z"/>
			<path id="Shape_6_" class="st1" d="M37.6,78c-0.7,0-1.3-0.6-1.3-1.3V55.9c0-0.7,0.6-1.3,1.3-1.3c0.7,0,1.3,0.6,1.3,1.3v20.8
				C38.9,77.4,38.3,78,37.6,78z"/>
			<path id="Shape_7_" class="st1" d="M28.5,78c-0.7,0-1.3-0.6-1.3-1.3V55.9c0-0.7,0.6-1.3,1.3-1.3s1.3,0.6,1.3,1.3v20.8
				C29.8,77.4,29.2,78,28.5,78z"/>
			<path id="Shape_8_" class="st1" d="M40.2,57.2c-0.7,0-1.3-0.6-1.3-1.3v-39c0-0.7,0.6-1.3,1.3-1.3c0.7,0,1.3,0.6,1.3,1.3v39
				C41.5,56.6,40.9,57.2,40.2,57.2z"/>
			<path id="Shape_9_" class="st1" d="M32.4,57.2c-0.7,0-1.3-0.6-1.3-1.3v-39c0-0.7,0.6-1.3,1.3-1.3c0.7,0,1.3,0.6,1.3,1.3v39
				C33.7,56.6,33.1,57.2,32.4,57.2z"/>
			<path id="Shape_10_" class="st1" d="M24.6,57.2c-0.7,0-1.3-0.6-1.3-1.3v-39c0-0.7,0.6-1.3,1.3-1.3s1.3,0.6,1.3,1.3v39
				C25.9,56.6,25.3,57.2,24.6,57.2z"/>
			<path id="Shape_11_" class="st1" d="M16.8,57.2c-0.7,0-1.3-0.6-1.3-1.3v-39c0-0.7,0.6-1.3,1.3-1.3s1.3,0.6,1.3,1.3v39
				C18.1,56.6,17.6,57.2,16.8,57.2z"/>
			<path id="Shape_12_" class="st1" d="M47.9,26H9.1c-0.7,0-1.3-0.6-1.3-1.3c0-0.7,0.6-1.3,1.3-1.3h38.9c0.7,0,1.3,0.6,1.3,1.3
				C49.2,25.4,48.6,26,47.9,26z"/>
			<path id="Shape_13_" class="st1" d="M47.9,33.8H9.1c-0.7,0-1.3-0.6-1.3-1.3c0-0.7,0.6-1.3,1.3-1.3h38.9c0.7,0,1.3,0.6,1.3,1.3
				C49.2,33.2,48.6,33.8,47.9,33.8z"/>
			<path id="Shape_14_" class="st1" d="M47.9,41.6H9.1c-0.7,0-1.3-0.6-1.3-1.3c0-0.7,0.6-1.3,1.3-1.3h38.9c0.7,0,1.3,0.6,1.3,1.3
				C49.2,41,48.6,41.6,47.9,41.6z"/>
			<path id="Shape_15_" class="st1" d="M47.9,49.4H9.1c-0.7,0-1.3-0.6-1.3-1.3c0-0.7,0.6-1.3,1.3-1.3h38.9c0.7,0,1.3,0.6,1.3,1.3
				C49.2,48.8,48.6,49.4,47.9,49.4z"/>
			<path id="Shape_16_" class="st1" d="M47.9,57.2H9.1c-0.7,0-1.3-0.6-1.3-1.3c0-0.7,0.6-1.3,1.3-1.3h38.9c0.7,0,1.3,0.6,1.3,1.3
				C49.2,56.6,48.6,57.2,47.9,57.2z"/>
			<path id="Shape_17_" class="st1" d="M55.7,78H1.3C0.6,78,0,77.4,0,76.7c0-0.7,0.6-1.3,1.3-1.3h54.4c0.7,0,1.3,0.6,1.3,1.3
				C57,77.4,56.4,78,55.7,78z"/>
		</g>
	</g>
</g>
</svg>
